{
    "message": "success",
    "request": {
        "altitude": 20,
        "datetime": 1518960296,
        "latitude": 45,
        "longitude": -122.3,
        "passes": 10
    },
    "response": [
                 {
                 "duration": 566,
                 "risetime": 1518972429
                 },
                 {
                 "duration": 641,
                 "risetime": 1518978159
                 },
                 {
                 "duration": 615,
                 "risetime": 1518983982
                 },
                 {
                 "duration": 617,
                 "risetime": 1518989808
                 },
                 {
                 "duration": 640,
                 "risetime": 1518995603
                 },
                 {
                 "duration": 542,
                 "risetime": 1519001414
                 },
                 {
                 "duration": 487,
                 "risetime": 1519055751
                 },
                 {
                 "duration": 638,
                 "risetime": 1519061429
                 },
                 {
                 "duration": 624,
                 "risetime": 1519067235
                 },
                 {
                 "duration": 611,
                 "risetime": 1519073067
                 }
                 ]
}
